Data Science Challenge
…
For categorical variables, just replace invalid value with the most frequent value.

Mode <- function(x) {
    u <- unique(x)
    u[which.max(tabulate(match(x, u)))]
}
df_clean$RateCodeID[!df_clean$RateCodeID %in% c(1:6)] <- Mode(df_clean$RateCodeID)
df_clean$Trip_type[!df_clean$Trip_type %in% c(1, 2)] <- Mode(df_clean$Trip_type)

For numerical variables, lets take a look at those negative values first.

tbl_df(df %>% filter(Total_amount < 0) %>% select(Fare_amount, Total_amount, Tolls_amount, 
    Tip_amount, Extra, MTA_tax, improvement_surcharge))

## # A tibble: 2,417 x 7
##    Fare_amount Total_amount Tolls_amount Tip_amount  Extra MTA_tax
##          <dbl>        <dbl>        <dbl>      <dbl>  <dbl>   <dbl>
##  1       -2.50        -3.80           0.         0. -0.500  -0.500
##  2       -4.50        -5.80           0.         0. -0.500  -0.500
##  3       -3.00        -4.30           0.         0. -0.500  -0.500
##  4      -52.0        -52.8            0.         0.  0.     -0.500
##  5       -2.50        -3.80           0.         0. -0.500  -0.500
##  6       -3.00        -3.80           0.         0.  0.     -0.500
##  7       -2.50        -3.30           0.         0.  0.     -0.500
##  8       -4.50        -5.30           0.         0.  0.     -0.500
##  9       -2.50        -3.30           0.         0.  0.     -0.500
## 10       -4.00        -4.80           0.         0.  0.     -0.500
## # ... with 2,407 more rows, and 1 more variable:
## #   improvement_surcharge <dbl>
…
